{
   "action" : "get_post_list",
   "returnCode" : "50000",
   "postList" : [
      {
         "authorId" : "52_小雞雞也是大雞雞",
         "sourceName" : "club.autohome.com.cn",
         "angryCount" : "0",
         "fansCount" : 0,
         "sourceRegion" : "cn",
         "media" : "FORUM",
         "pubDate" : 1477274298000,
         "sourceId" : "52",
         "hahaCount" : "0",
         "orderByDate" : 1477274298000,
         "blogId" : "2016102430444159134",
         "commentCount" : -1,
         "sentiment" : "POSITIVE",
         "wowCount" : "0",
         "comment" : {},
         "score" : "71%",
         "mediaKey" : "forum",
         "shareCount" : 0,
         "title" : "关于购买精英还是豪华型",
         "imageCount" : 0,
         "viewCount" : 0,
         "sadCount" : "0",
         "wisers_kol_id" : 1,
         "authorImageUrl" : "",
         "approximateTime" : "35 分鐘前",
         "loveCount" : "0",
         "url" : "http://club.autohome.com.cn/bbs/threadqa-c-3207-57372470-1.html",
         "likeCount" : 0,
         "preciseTime" : "2016-10-24 09:58:18",
         "allSentimentCount" : "0",
         "id" : "2016102400003376639",
         "authorType" : 0,
         "contentType" : "",
         "content" : "\n\n目前有辆<b>宝马X1</b>开了4年左右  考虑置换凯迪拉克atsl    看了下配置    精英型的皮织物混搭是啥东西    好像还相差电动耳   两个配置  落地多少米左右\n\n\n",
         "author" : "小鸡鸡也是大鸡鸡",
         "mentionCommentCount" : 0
      },
      {
         "fansCount" : 1,
         "sourceRegion" : "cn",
         "media" : "SINA_WEIBO",
         "authorId" : "1_6019303682",
         "angryCount" : "0",
         "sourceName" : "http://app.weibo.com/t/feed/47oFC5",
         "orgImageUrl" : "http://ww3.sinaimg.cn/large/006zmnRgjw1f933ekx091j30m80gogn0.jpg",
         "comment" : {},
         "sentiment" : "NEUTRAL",
         "wowCount" : "0",
         "pubDate" : 1477272278000,
         "sourceId" : "1",
         "commentCount" : 0,
         "blogId" : "4034033027654556",
         "orderByDate" : 1477271884000,
         "hahaCount" : "0",
         "loveCount" : "0",
         "likeCount" : 0,
         "url" : "http://weibo.com/6019303682/EehlYw7iA",
         "authorImageUrl" : "http://tva3.sinaimg.cn/default/images/default_avatar_male_50.gif",
         "approximateTime" : "1 小時前",
         "thumbImageUrl" : "http://ww3.sinaimg.cn/thumbnail/006zmnRgjw1f933ekx091j30m80gogn0.jpg",
         "imageCount" : 1,
         "midImgUrl" : "http://ww3.sinaimg.cn/bmiddle/006zmnRgjw1f933ekx091j30m80gogn0.jpg",
         "sadCount" : "0",
         "viewCount" : 0,
         "wisers_kol_id" : 1,
         "score" : "0%",
         "title" : "",
         "mediaKey" : "sinaweibo",
         "shareCount" : 0,
         "author" : "中山优品",
         "mentionCommentCount" : 0,
         "content" : "http://t.cn/RVWJ2ft宝马宝马X12014款  <b>宝马X1</b>  sDrive18i 领先型",
         "contentType" : "",
         "authorType" : 0,
         "id" : "2016102410000137917",
         "allSentimentCount" : "0",
         "preciseTime" : "2016-10-24 09:18:04"
      },
      {
         "id" : "2016102410000125625",
         "authorType" : 4,
         "preciseTime" : "2016-10-24 08:59:12",
         "allSentimentCount" : "0",
         "author" : "贾慧军",
         "mentionCommentCount" : 0,
         "contentType" : "",
         "content" : "【车辆型号】2015款 <b>宝马X1</b> sDrive18i 领先晋级版 【上牌时间】2015年01月 【行驶里程】1.60万公里 【车辆价格】24.80万元，官方指导价：31.90万 + 2.73万(购置税)，省9.83万 【联系方式】15234061984 【车行名称】易兴昌二手车超市 名称】易兴昌二手车超市 【车辆详情名称】易兴昌二手车超市 【车辆详情】http://t.cn/RVWxzRg",
         "midImgUrl" : "http://ww3.sinaimg.cn/bmiddle/8f16c8a1jw1f932uybrdzj20m80go76q.jpg",
         "imageCount" : 1,
         "thumbImageUrl" : "http://ww3.sinaimg.cn/thumbnail/8f16c8a1jw1f932uybrdzj20m80go76q.jpg",
         "sadCount" : "0",
         "viewCount" : 0,
         "wisers_kol_id" : 1,
         "score" : "89%",
         "mediaKey" : "sinaweibo",
         "shareCount" : 0,
         "title" : "",
         "loveCount" : "0",
         "url" : "http://weibo.com/2400635041/EehejEN1e",
         "likeCount" : 0,
         "authorImageUrl" : "http://tva1.sinaimg.cn/crop.0.2.508.508.50/8f16c8a1jw8f72696lj6uj20e40e8jrr.jpg",
         "approximateTime" : "1 小時前",
         "sentiment" : "POSITIVE",
         "wowCount" : "0",
         "pubDate" : 1477270965000,
         "sourceId" : "1",
         "orderByDate" : 1477270752000,
         "hahaCount" : "0",
         "blogId" : "4034028279721552",
         "commentCount" : 0,
         "orgImageUrl" : "http://ww3.sinaimg.cn/large/8f16c8a1jw1f932uybrdzj20m80go76q.jpg",
         "comment" : {},
         "fansCount" : 1496,
         "sourceRegion" : "cn",
         "media" : "SINA_WEIBO",
         "authorId" : "1_2400635041",
         "sourceName" : "http://app.weibo.com/t/feed/4CAL6v",
         "angryCount" : "0"
      },
      {
         "sentiment" : "POSITIVE",
         "wowCount" : "0",
         "pubDate" : 1477269735000,
         "sourceId" : "1",
         "orderByDate" : 1477269425000,
         "hahaCount" : "0",
         "blogId" : "4034022704890187",
         "commentCount" : 0,
         "comment" : {},
         "fansCount" : 33,
         "sourceRegion" : "cn",
         "media" : "SINA_WEIBO",
         "authorId" : "1_5766536628",
         "sourceName" : "http://app.weibo.com/t/feed/5B6hUc",
         "angryCount" : "0",
         "id" : "2016102410000120336",
         "authorType" : 0,
         "preciseTime" : "2016-10-24 08:37:05",
         "allSentimentCount" : "0",
         "author" : "天津股侠--在线股票指导分析",
         "mentionCommentCount" : 0,
         "contentType" : "",
         "content" : "【宝马入门SUV推限量版】该款全新车型官方指导价为38.8万元，限量发售500台，同时相比目前X1xDrive20i时尚晋级版而言售价有所提升，不过采用了宝马M专属套件，使整车外观造型更炫，下面网通社将带您更为详细了解该款车型的配置信息。 http://t.cn/8svsvl8",
         "imageCount" : 0,
         "viewCount" : 0,
         "sadCount" : "0",
         "wisers_kol_id" : 1,
         "score" : "88%",
         "mediaKey" : "sinaweibo",
         "shareCount" : 0,
         "title" : "",
         "loveCount" : "0",
         "url" : "http://weibo.com/5766536628/Eeh5kkw9Z",
         "likeCount" : 0,
         "authorImageUrl" : "http://tva1.sinaimg.cn/crop.0.0.180.180.50/006ifNBijw8eyzf2t4j8qj3050050zk6.jpg",
         "approximateTime" : "1 小時前"
      },
      {
         "author" : "浓降针蜜",
         "mentionCommentCount" : 0,
         "content" : "【宝马X2】全新X2的推出将在其一【宝马X2】全新X2的推出将在其一两年半研发项目之后，预计两年半两年半期间将有多款新车推出。全两年半期间将有多款新车推出。全新宝马X2有望两年半期间将有多款新车推出。全新宝马X2有望基于宝马UKL平台打两年半期间将有多款新车推出。全新宝马X2有望基于宝马UKL平台打造，同样的平台也两年半期间将有多款新车推出。全新宝马X2有望基于宝马UKL平台打造，同样的平台也应用在全新X1以及其它包括2系ActiveTourer旅行版以及2系GranTourer在内的多款新车。",
         "contentType" : "",
         "authorType" : 0,
         "id" : "2016102410000114265",
         "allSentimentCount" : "0",
         "preciseTime" : "2016-10-24 08:24:07",
         "loveCount" : "0",
         "likeCount" : 0,
         "url" : "http://weibo.com/6006493495/Eeh04qT21",
         "authorImageUrl" : "http://tva2.sinaimg.cn/crop.0.0.200.200.50/006yuDlljw1f6yo5vb33gj305k05kmx2.jpg",
         "approximateTime" : "2 小時前",
         "thumbImageUrl" : "http://ww3.sinaimg.cn/thumbnail/7aacaf82jw1e7j17u07w8j21kw11x4hv.jpg",
         "imageCount" : 1,
         "midImgUrl" : "http://ww3.sinaimg.cn/bmiddle/7aacaf82jw1e7j17u07w8j21kw11x4hv.jpg",
         "sadCount" : "0",
         "viewCount" : 0,
         "wisers_kol_id" : 1,
         "score" : "0%",
         "title" : "",
         "mediaKey" : "sinaweibo",
         "shareCount" : 0,
         "orgImageUrl" : "http://ww3.sinaimg.cn/large/7aacaf82jw1e7j17u07w8j21kw11x4hv.jpg",
         "comment" : {},
         "sentiment" : "NEUTRAL",
         "wowCount" : "0",
         "sourceId" : "1",
         "pubDate" : 1477269156000,
         "commentCount" : 0,
         "blogId" : "4034019446408073",
         "orderByDate" : 1477268647000,
         "hahaCount" : "0",
         "sourceRegion" : "cn",
         "fansCount" : 32,
         "media" : "SINA_WEIBO",
         "authorId" : "1_6006493495",
         "angryCount" : "0",
         "sourceName" : "http://app.weibo.com/t/feed/9ksdit"
      },
      {
         "sourceName" : "北美省钱快报",
         "angryCount" : "0",
         "authorId" : "2622_dealmoon",
         "media" : "WECHAT",
         "fansCount" : 0,
         "sourceRegion" : "cn",
         "orderByDate" : 1477267757000,
         "hahaCount" : "0",
         "blogId" : "2016102400003230922",
         "commentCount" : 0,
         "pubDate" : 1477267757000,
         "sourceId" : "2622",
         "wowCount" : "0",
         "sentiment" : "NEUTRAL",
         "comment" : {},
         "shareCount" : 0,
         "mediaKey" : "wechat",
         "title" : "年底购车的最好时机来啦！好时机来啦！第四季度爆款新车优点+参考价+折扣都在这！",
         "score" : "0%",
         "viewCount" : 2267,
         "sadCount" : "0",
         "wisers_kol_id" : 1,
         "imageCount" : 0,
         "approximateTime" : "2 小時前",
         "authorImageUrl" : "",
         "url" : "http://mp.weixin.qq.com/s?__biz=MjM5NzA5MDcwMA==&mid=2650981822&idx=6&sn=c8c7dd249ce3ee8be552fdb4af80b615&chksm=bd29215d8a5ea84be1c0a671747f621a78925b52ea65c7352bb44a388660701141255cce055b&3rd=MzA3MDU4NTYzMw==&scene=6#rd",
         "likeCount" : 0,
         "loveCount" : "0",
         "preciseTime" : "2016-10-24 08:09:17",
         "allSentimentCount" : "0",
         "id" : "2016102400003230922",
         "authorType" : 0,
         "contentType" : "",
         "content" : "\n\n已经进入第四季度了，眼瞅着就要迈入11月，各路Dealer纷纷开始紧张起来，库存还压着请不掉怎么办？年底业绩怎么办？旧款车型纷纷开始清仓降价，只求脱手不求利润，来年靠手上的现金上的现金买新款再去赚钱。这个上的现金买新款再去赚钱。这个时候就是大家购车的好时机。\n\n也许有人会说，到了年底肯定折扣力度最大，我要摒到年底再买，但是这是大家都知道的秘密，越是到了年底买车的人越多你的选择就越少。所以，想要在年底前购车的朋友们一定要开始早做打算。\n\n有心仪车型的朋友们可以使用询价网站实时查看周围dealer的报价。不知道怎么用询价网站的朋友可以看看我们的杀价小贴士，轻松省下好几千，让你砍价更有优势。\n\n没有心仪车型，想广撒网的朋友们可折扣力度最大，我要摒到年底再买，但是这是大家都知道的秘密，越是到了年底买车的人越多你的选择就越少。所以，想要在年底前购车的朋友们一定要开始早做打算。\n\n有心仪车型的朋友们可以使用询价网站实时查看周围dealer的报价。不知道怎么用询价网站的朋友可以看看我们的杀价小贴士，轻松省下好几千，让你砍价更有优势。\n\n没有心仪车型，想广撒网的朋友们可以经常关注我们的每月最新最好的汽车折扣推荐，轻松掌握价格行情。小编这就从10月新车折扣中挑选几辆爆款车型来和大家聊一聊。\n\n杀价小贴士：不知道怎么用Edmunds？没。\n\n杀价小贴士：不知道怎么用Edmunds？没关系，点击链接查看小。\n\n杀价小贴士：不知道怎么用Edmunds？没关系，点击链接查看小攻略，让你还没开口先省几千。《买。\n\n杀价小贴士：不知道怎么用Edmunds？没关系，点击链接查看小攻略，让你还没开口先省几千。《买车时如何应对老奸巨。\n\n杀价小贴士：不知道怎么用Edmunds？没关系，点击链接查看小攻略，让你还没开口先省几千。《买车时如何应对老奸巨猾的dealer？赶紧看看这篇科普，分分钟省下好几千》\n\n每月新车折扣推荐： 查看最新10月秋季促销！雷克萨斯宝马继续大力度促销！234系/X1，RC/ES劲爆折扣！点击链接：http://t.cn/RVq6tbl\n\n德系性价比新选择 2016 BMW 3系，建议售价$34,445起。\n\n以执着于操控而著名的宝马最近也开始走亲民路线了，在北美推出了价格更低的320i可以算是一个信号，以往的高富帅也开始更加注重燃油经济性、舒适性以及性价比。\n\n尽管如此，3系还是保持了其一贯优异的操控性，以及运动性。实惠的美国人当然也很懂行，3系也因其更加亲民的策略在美国人当然也很懂行，3系也因其更加亲民的策略在北美的销量也越来越好。现有厂家直接提供的 $1500 立减折扣，毕业生还可享受额外$1000学生优惠。\n\n激进小钢炮 2016 BMW 228i ，建议售价$32,850起。\n\n作为宝马小钢炮级别的产品，动力优秀，百公里加速可达5.5秒。2系，动力优秀，百公里加速可达5.5秒。2系是一台以外形设计就能抓住人心的车，在这一点，动力优秀，百公里加速可达5.5秒。2系是一台以外形设计就能抓住人心的车，在这一点上就比它的小表哥1系要出色得多。相，动力优秀，百公里加速可达5.5秒。2系是一台以外形设计就能抓住人心的车，在这一点上就比它的小表哥1系要出色得多。相当有个性的大灯造型，外形更加，动力优秀，百公里加速可达5.5秒。2系是一台以外形设计就能抓住人心的车，在这一点上就比它的小表哥1系要出色得多。相当有个性的大灯造型，外形更加时尚美感，同时，动力优秀，百公里加速可达5.5秒。2系是一台以外形设计就能抓住人心的车，在这一点上就比它的小表哥1系要出色得多。相当有个性的大灯造型，外形更加时尚美感，同时兼顾外形舒适，动力优秀，百公里加速可达5.5秒。2系是一台以外形设计就能抓住人心的车，在这一点上就比它的小表哥1系要出色得多。相当有个性的大灯造型，外形更加时尚美感，同时兼顾外形舒适性以及运动型的18吋轮毂。\n\n228i在选装了M包后更加霸气，还有XDrvie四驱系统可选，作为宝马家入门级产品可谓是相当厚道。现有厂家提供的$1500立减折扣，毕业生可享受额外$1000学生优惠。\n\n有容乃大 2016 BMW X1，建议售价$34,800起。\n\n一向高傲的宝马向市场妥协的妥协的另一款优质产品，曾经一度以后驱唯一为卖点的宝马倾听妥协的另一款优质产品，曾经一度以后驱唯一为卖点的宝马倾听了消费者的诉求，现在也屈尊开始妥协的另一款优质产品，曾经一度以后驱唯一为卖点的宝马倾听了消费者的诉求，现在也屈尊开始做起前驱车。由于发动机横置不再妥协的另一款优质产品，曾经一度以后驱唯一为卖点的宝马倾听了消费者的诉求，现在也屈尊开始做起前驱车。由于发动机横置不再占用地方，所以整个新款X1尽管外形上长度和轴距都有所减小，反而内部空间更加大了，最大限度的保障了驾反而内部空间更加大了，最大限度的保障了驾乘体验。\n\n全新的XDrive四驱系统，重量反而内部空间更加大了，最大限度的保障了驾乘体验。\n\n全新的XDrive四驱系统，重量更轻，在正常行驶反而内部空间更加大了，最大限度的保障了驾乘体验。\n\n全新的XDrive四驱系统，重量更轻，在正常行驶时采用前驱模式，经济省油，遇到极端情况可以传递100%动力到后轮帮反而内部空间更加大了，最大限度的保障了驾乘体验。\n\n全新的XDrive四驱系统，重量更轻，在正常行驶时采用前驱模式，经济省油，遇到极端情况可以传递100%动力到后轮帮助脱反而内部空间更加大了，最大限度的保障了驾乘体验。\n\n全新的XDrive四驱系统，重量更轻，在正常行驶时采用前驱模式，经济省油，遇到极端情况可以传递100%动力到后轮帮助脱困，让你更有信心。现有厂家提供的$2000 立减折扣，毕业生反而内部空间更加大了，最大限度的保障了驾乘体验。\n\n全新的XDrive四驱系统，重量更轻，在正常行驶时采用前驱模式，经济省油，遇到极端情况可以传递100%动力到后轮帮助脱困，让你更有信心。现有厂家提供的$2000 立减折扣，毕业生可享受额外$1000学生优惠反而内部空间更加大了，最大限度的保障了驾乘体验。\n\n全新的XDrive四驱系统，重量更轻，在正常行驶时采用前驱模式，经济省油，遇到极端情况可以传递100%动力到后轮帮助脱困，让你更有信心。现有厂家提供的$2000 立减折扣，毕业生可享受额外$1000学生优惠。\n\n安全首选 2016 Volvo XC60，建议售价$36,600反而内部空间更加大了，最大限度的保障了驾乘体验。\n\n全新的XDrive四驱系统，重量更轻，在正常行驶时采用前驱模式，经济省油，遇到极端情况可以传递100%动力到后轮帮助脱困，让你更有信心。现有厂家提供的$2000 立减折扣，毕业生可享受额外$1000学生优惠。\n\n安全首选 2016 Volvo XC60，建议售价$36,600起。\n\n听说来自瑞典的都特别厉害反而内部空间更加大了，最大限度的保障了驾乘体验。\n\n全新的XDrive四驱系统，重量更轻，在正常行驶时采用前驱模式，经济省油，遇到极端情况可以传递100%动力到后轮帮助脱困，让你更有信心。现有厂家提供的$2000 立减折扣，毕业生可享受额外$1000学生优惠。\n\n安全首选 2016 Volvo XC60，建议售价$36,600起。\n\n听说来自瑞典的都特别厉害，来自瑞典的Volvo作为消费者心目中的首选安全车品牌，一向是不辱使命的。2016款Volvo XC60在IIHS拿到了年度Top Safety Pick+的优异成绩，除了安全座椅插座不方便使用扣了分，其他所有测试均都是Good通过。\n\n内外造型均增添运动风味，配置也进一步升级，加上北欧特有的简约风格，给欧特有的简约风格，给人轻快、惬意的感受。全时四轮驱动，并使用City Safety系统，安全性更加全面。\n\n西装暴走族 2016 Lexus RC200t ，建议售价$39,995起。\n\nLexus品牌一向给人豪华，大器且优雅的形象，虽然在运且优雅的形象，虽然在运动化市场上一直不是很且优雅的形象，虽然在运动化市场上一直不是很出挑，但是从未忽略过，豪华超跑LF-A、足已匹敌C63/M3的IS F都是其经典版的存在。这次更是全新推出RC系列双门小跑携带着一颗全新设计的2.0T发动机，打起了年轻人的算盘。\n\n这颗2.0t的发动机有着241匹马力，配合8速变速箱百公里加速也是7秒俱乐部成员，却十分平顺，并不像奥迪家的2.0t那样狂野，涡轮介入感十足。帅气抢眼的外形，张着一张血盆大口向世人宣誓着自己的血统。现在更有厂家直接提供的 $4000 立减折扣，本科或Associate Degree毕业生以及在读研究生更可享受额外$1000的学生优惠。\n\n紧且优雅的形象，虽然在运动化市场上一直不是很出挑，但是从未忽略过，豪华超跑LF-A、足已匹敌C63/M3的IS F都是其经典版的存在。这次更是全新推出RC系列双门小跑携带着一颗全新设计的2.0T发动机，打起了年轻人的算盘。\n\n这颗2.0t的发动机有着241匹马力，配合8速变速箱百公里加速也是7秒俱乐部成员，却十分平顺，并不像奥迪家的2.0t那样狂野，涡轮介入感十足。帅气抢眼的外形，张着一张血盆大口向世人宣誓着自己的血统。现在更有厂家直接提供的 $4000 立减折扣，本科或Associate Degree毕业生以及在读研究生更可享受额外$1000的学生优惠。\n\n紧凑型SUV新选择 2016 Lexus NX200t，建议售价$34,965起。\n\nNX的意思是Nimble Crossover，意且优雅的形象，虽然在运动化市场上一直不是很出挑，但是从未忽略过，豪华超跑LF-A、足已匹敌C63/M3的IS F都是其经典版的存在。这次更是全新推出RC系列双门小跑携带着一颗全新设计的2.0T发动机，打起了年轻人的算盘。\n\n这颗2.0t的发动机有着241匹马力，配合8速变速箱百公里加速也是7秒俱乐部成员，却十分平顺，并不像奥迪家的2.0t那样狂野，涡轮介入感十足。帅气抢眼的外形，张着一张血盆大口向世人宣誓着自己的血统。现在更有厂家直接提供的 $4000 立减折扣，本科或Associate Degree毕业生以及在读研究生更可享受额外$1000的学生优惠。\n\n紧凑型SUV新选择 2016 Lexus NX200t，建议售价$34,965起。\n\nNX的意思是Nimble Crossover，意思为敏捷聪明的多功能跨界车。NX总工程师加且优雅的形象，虽然在运动化市场上一直不是很出挑，但是从未忽略过，豪华超跑LF-A、足已匹敌C63/M3的IS F都是其经典版的存在。这次更是全新推出RC系列双门小跑携带着一颗全新设计的2.0T发动机，打起了年轻人的算盘。\n\n这颗2.0t的发动机有着241匹马力，配合8速变速箱百公里加速也是7秒俱乐部成员，却十分平顺，并不像奥迪家的2.0t那样狂野，涡轮介入感十足。帅气抢眼的外形，张着一张血盆大口向世人宣誓着自己的血统。现在更有厂家直接提供的 $4000 立减折扣，本科或Associate Degree毕业生以及在读研究生更可享受额外$1000的学生优惠。\n\n紧凑型SUV新选择 2016 Lexus NX200t，建议售价$34,965起。\n\nNX的意思是Nimble Crossover，意思为敏捷聪明的多功能跨界车。NX总工程师加藤武明曾经介绍过，NX且优雅的形象，虽然在运动化市场上一直不是很出挑，但是从未忽略过，豪华超跑LF-A、足已匹敌C63/M3的IS F都是其经典版的存在。这次更是全新推出RC系列双门小跑携带着一颗全新设计的2.0T发动机，打起了年轻人的算盘。\n\n这颗2.0t的发动机有着241匹马力，配合8速变速箱百公里加速也是7秒俱乐部成员，却十分平顺，并不像奥迪家的2.0t那样狂野，涡轮介入感十足。帅气抢眼的外形，张着一张血盆大口向世人宣誓着自己的血统。现在更有厂家直接提供的 $4000 立减折扣，本科或Associate Degree毕业生以及在读研究生更可享受额外$1000的学生优惠。\n\n紧凑型SUV新选择 2016 Lexus NX200t，建议售价$34,965起。\n\nNX的意思是Nimble Crossover，意思为敏捷聪明的多功能跨界车。NX总工程师加藤武明曾经介绍过，NX要以卓越的性且优雅的形象，虽然在运动化市场上一直不是很出挑，但是从未忽略过，豪华超跑LF-A、足已匹敌C63/M3的IS F都是其经典版的存在。这次更是全新推出RC系列双门小跑携带着一颗全新设计的2.0T发动机，打起了年轻人的算盘。\n\n这颗2.0t的发动机有着241匹马力，配合8速变速箱百公里加速也是7秒俱乐部成员，却十分平顺，并不像奥迪家的2.0t那样狂野，涡轮介入感十足。帅气抢眼的外形，张着一张血盆大口向世人宣誓着自己的血统。现在更有厂家直接提供的 $4000 立减折扣，本科或Associate Degree毕业生以及在读研究生更可享受额外$1000的学生优惠。\n\n紧凑型SUV新选择 2016 Lexus NX200t，建议售价$34,965起。\n\nNX的意思是Nimble Crossover，意思为敏捷聪明的多功能跨界车。NX总工程师加藤武明曾经介绍过，NX要以卓越的性能以及迷人的外观内饰设计让消费者一见倾心。依旧是那台性能强悍的2.0t发动机，即保证了燃油经济性又有足够的动力。与传统的日本车的“轻快感”完全不同，这台NX200t带来的是一种稳重扎实的驾驶感受。\n\n外形也外形也十分帅气，线条明显，更加年轻化，可以看出Lexus的策略转变。现有厂家提供的$2000 立减折扣，或本科或Associate Degree毕业生以及在读研究生更可享受额外$1000的学生优惠。\n\n实惠家用车 2016 Toyota Corolla ，建议售价$17,300起。\n\n出色的可靠性，舒适平稳顺滑的驾驶感受，车身小巧且灵敏，优秀的燃油经济性，舒适的后排空间等等，作为一台家用型小型轿车，它刚刚好满足了几乎每一个小型家用车客户对这辆车的期望。\n\n而改款后的卡罗拉，保留了以往所有的优点的同时更是在外观设计上趋于时更是在外观设计上趋于年轻化，内饰上也更多的使用柔软材料以及缝线元素来提升内饰的档次感。现有厂家直接提供的 $2000 立减折扣素来提升内饰的档次感。现有厂家直接提供的 $2000 立减折扣，或24/36/48/60/72个月0.0%的贷款期素来提升内饰的档次感。现有厂家直接提供的 $2000 立减折扣，或24/36/48/60/72个月0.0%的贷款期限。毕业生还可享受额外$750学生优惠。\n\n小却硬 2016 Jeep Renegade ，建议售价$17,995起。\n\n作为专门生产SUV的厂商，Jeep一直能为消费者带来最纯粹的越野风格车型，而这款小型SUV车型也一直备受大众的关注。Jeep家非常“Jeep”的小弟弟，保留着七孔式进气格栅家族设计，前后保险杠都用了黑色设计，，保留着七孔式进气格栅家族设计，前后保险杠都用了黑色设计，显得十分也行实用。\n\nRenegade的尾部层次，保留着七孔式进气格栅家族设计，前后保险杠都用了黑色设计，显得十分也行实用。\n\nRenegade的尾部层次感分明，方形尾灯中镶有X型白色灯组，致敬Jeep的鼻祖威利斯的同时还显得十分时尚。它天生小巧灵敏，并可选配摄像头辅助，变道辅助等多种安全配置，使您驾驶时信心十足。现有厂家直接提供的 $2000 立减折厂家直接提供的 $2000 立减折扣，或为贷款（Finance）用户提供的$1000折扣，以及36/48/60个月0.0%的贷款期限。\n\n萌系小蝎子 2016 Fiat 500 ，建议售价$16,995起。\n\n可爱且坚定的气泡车身，圆头圆脑但是不失时尚感。圆形LED日间行车灯以及精致的前脸都让整个车增加了典雅的气质，并采用了全新的镂空尾灯，造的气质，并采用了全新的镂空尾灯，造型也十分新颖。2016也款车新也开始增加的气质，并采用了全新的镂空尾灯，造型也十分新颖。2016也款车新也开始增加了更多的隔音材料的气质，并采用了全新的镂空尾灯，造型也十分新颖。2016也款车新也开始增加了更多的隔音材料，使得车内噪音降低到新的水平。\n\n在的气质，并采用了全新的镂空尾灯，造型也十分新颖。2016也款车新也开始增加了更多的隔音材料，使得车内噪音降低到新的水平。\n\n在新潮可爱的外形下隐藏着一颗1.4升引擎，Abarth版更是加装了涡轮，能够输出135匹的马力，在这样一个小巧的车型上简直绰绰有余，足够让你在街道和高速公路上穿梭。现有厂家直接提供的 $2000 立减折扣，或为贷款（Finance）直接提供的 $2000 立减折扣，或为贷款（Finance）用户提供36/48/60个月0.0%的贷款期限。\n\n如何购买？\n\n两种快捷方式：\n\n1:长按复制下面链接，拷贝到浏览器打开\n\nhttp://t.cn/RVWhCDP\n\n2:或者点击页面底部左方\"阅读原文\"\n\n\n",
         "mentionCommentCount" : 0,
         "author" : "北美省钱快报"
      },
      {
         "comment" : {},
         "orgImageUrl" : "http://ww2.sinaimg.cn/large/006zQkPJjw1f92vegl45bj30fu0akmxp.jpg",
         "wowCount" : "0",
         "sentiment" : "POSITIVE",
         "orderByDate" : 1477255270000,
         "hahaCount" : "0",
         "commentCount" : 0,
         "blogId" : "4033963334462021",
         "pubDate" : 1477255953000,
         "sourceId" : "1",
         "media" : "SINA_WEIBO",
         "sourceRegion" : "cn",
         "fansCount" : 1,
         "sourceName" : "http://app.weibo.com/t/feed/6vtZb0",
         "angryCount" : "0",
         "authorId" : "1_6026441895",
         "mentionCommentCount" : 0,
         "author" : "董之贰我是谁",
         "contentType" : "",
         "content" : "【宝马入门跨界车假想图曝光】宝马正在筹划一款以奥迪Q1为假想敌的全新入门级豪华SUV，定位低于第二代X1，预计将在2018年上市。该车在宝马集团内部的代号为XCite，预计上马集团内部的代号为XCite，预计上市时将以1系Sport Cross为名。全新1系SC的设马集团内部的代号为XCite，预计上市时将以1系Sport Cross为名。全新1系SC的设计将继承宝马家族醒目的双肾型进气格栅，充满雕塑感和动感的车身线条。",
         "id" : "2016102410000060151",
         "authorType" : 0,
         "preciseTime" : "2016-10-24 04:41:10",
         "allSentimentCount" : "0",
         "url" : "http://weibo.com/6026441895/EefxziIM5",
         "likeCount" : 0,
         "loveCount" : "0",
         "approximateTime" : "5 小時前",
         "authorImageUrl" : "http://tva2.sinaimg.cn/crop.0.0.199.199.50/006zQkPJjw1f82q39ex1ij305k05lgli.jpg",
         "sadCount" : "0",
         "wisers_kol_id" : 1,
         "viewCount" : 0,
         "midImgUrl" : "http://ww2.sinaimg.cn/bmiddle/006zQkPJjw1f92vegl45bj30fu0akmxp.jpg",
         "thumbImageUrl" : "http://ww2.sinaimg.cn/thumbnail/006zQkPJjw1f92vegl45bj30fu0akmxp.jpg",
         "imageCount" : 1,
         "mediaKey" : "sinaweibo",
         "shareCount" : 0,
         "title" : "",
         "score" : "93%"
      },
      {
         "sourceName" : "http://app.weibo.com/t/feed/3auC5p",
         "angryCount" : "0",
         "authorId" : "1_5626318463",
         "media" : "SINA_WEIBO",
         "fansCount" : 193,
         "sourceRegion" : "cn",
         "comment" : {},
         "orgImageUrl" : "http://ww4.sinaimg.cn/large/0068LsrZjw1f92tw7h4qbj30go0cijt0.jpg",
         "hahaCount" : "0",
         "orderByDate" : 1477252141000,
         "commentCount" : 0,
         "blogId" : "4033950215306541",
         "pubDate" : 1477252322000,
         "sourceId" : "1",
         "wowCount" : "0",
         "sentiment" : "NEUTRAL",
         "approximateTime" : "6 小時前",
         "authorImageUrl" : "http://tva2.sinaimg.cn/crop.44.0.1448.1448.50/0068LsrZjw8f8hfcbmnyij316o148q5y.jpg",
         "url" : "http://weibo.com/5626318463/Eefcpmgtn",
         "likeCount" : 0,
         "loveCount" : "0",
         "shareCount" : 0,
         "mediaKey" : "sinaweibo",
         "title" : "",
         "score" : "0%",
         "wisers_kol_id" : 1,
         "sadCount" : "0",
         "viewCount" : 0,
         "midImgUrl" : "http://ww4.sinaimg.cn/bmiddle/0068LsrZjw1f92tw7h4qbj30go0cijt0.jpg",
         "thumbImageUrl" : "http://ww4.sinaimg.cn/thumbnail/0068LsrZjw1f92tw7h4qbj30go0cijt0.jpg",
         "imageCount" : 1,
         "contentType" : "",
         "content" : "【之诺推全新插电混动SUV\"60H\"】新车长宽高分别插电混动SUV\"60H\"】新车长宽高分别为4,582*1,820*1,609毫米，轴距为2,780毫米。外观方面整体轮廓与全新X1相似，但细节之处有所区别，舍去“宝马”的一些元素区别，舍去“宝马”的一些元素。进气格栅采用双横区别，舍去“宝马”的一些元素。进气格栅采用双横幅式，前杠为左右贯通式设计；尾部方面设计也与X1区别，舍去“宝马”的一些元素。进气格栅采用双横幅式，前杠为左右贯通式设计；尾部方面设计也与X1有所不同，采用纵向排列的尾灯组并与镀铬区别，舍去“宝马”的一些元素。进气格栅采用双横幅式，前杠为左右贯通式设计；尾部方面设计也与X1有所不同，采用纵向排列的尾灯组并与镀铬装饰条贯穿成为整体区别，舍去“宝马”的一些元素。进气格栅采用双横幅式，前杠为左右贯通式设计；尾部方面设计也与X1有所不同，采用纵向排列的尾灯组并与镀铬装饰条贯穿成为整体。",
         "mentionCommentCount" : 0,
         "author" : "涵曦LATOJA白林非",
         "preciseTime" : "2016-10-24 03:49:01",
         "allSentimentCount" : "0",
         "id" : "2016102410000051484",
         "authorType" : 1
      },
      {
         "approximateTime" : "7 小時前",
         "authorImageUrl" : "http://tva4.sinaimg.cn/crop.0.0.189.189.50/e66a0375gw1f92st1mu3gj205a05ajrs.jpg",
         "likeCount" : 0,
         "url" : "http://weibo.com/3865707381/EeeTq92qq",
         "loveCount" : "0",
         "title" : "",
         "mediaKey" : "sinaweibo",
         "shareCount" : 0,
         "score" : "93%",
         "viewCount" : 0,
         "sadCount" : "0",
         "wisers_kol_id" : 1,
         "imageCount" : 1,
         "thumbImageUrl" : "http://ww2.sinaimg.cn/thumbnail/e66a0375gw1f92sjj62bjj20fu0ak0ta.jpg",
         "midImgUrl" : "http://ww2.sinaimg.cn/bmiddle/e66a0375gw1f92sjj62bjj20fu0ak0ta.jpg",
         "content" : "【宝马入门跨界车假想图曝光】宝马正在筹划一款以奥迪Q1为假想敌的全新入门划一款以奥迪Q1为假想敌的全新入门级豪华SUV，定位低于第二代X1，预计将在2018年上市。该车在宝马集团内部的代号为XCite，预计上市时车在宝马集团内部的代号为XCite，预计上市时将以1系Sport Cross为名。全新1系SC的设计将继承宝马家族醒目的双肾型进气格栅，充满雕塑感和动感的车的双肾型进气格栅，充满雕塑感和动感的车身线条。",
         "contentType" : "",
         "mentionCommentCount" : 0,
         "author" : "奥尼路丹ANILUTUM",
         "allSentimentCount" : "0",
         "preciseTime" : "2016-10-24 03:02:14",
         "authorType" : 0,
         "id" : "2016102410000040191",
         "angryCount" : "0",
         "sourceName" : "http://app.weibo.com/t/feed/6vtZb0",
         "authorId" : "1_3865707381",
         "media" : "SINA_WEIBO",
         "fansCount" : 4,
         "sourceRegion" : "cn",
         "comment" : {},
         "orgImageUrl" : "http://ww2.sinaimg.cn/large/e66a0375gw1f92sjj62bjj20fu0ak0ta.jpg",
         "commentCount" : 0,
         "blogId" : "4033938442154278",
         "hahaCount" : "0",
         "orderByDate" : 1477249334000,
         "pubDate" : 1477249958000,
         "sourceId" : "1",
         "wowCount" : "0",
         "sentiment" : "POSITIVE"
      },
      {
         "contentType" : "",
         "content" : "\n\n金德微交易文件\n\n微交易【2016】040号\n\n————————————————————————————————————————————————————————————\n\n关于“流水年终大奖”奖励\n\n通知\n\n为了更好的推动市场良性发知\n\n为了更好的推动市场良性发展，经研究决定知\n\n为了更好的推动市场良性发展，经研究决定，自2016年10月24日起至2017年1知\n\n为了更好的推动市场良性发展，经研究决定，自2016年10月24日起至2017年1月30日推出“个人流水年终大奖”活动，内容如下知\n\n为了更好的推动市场良性发展，经研究决定，自2016年10月24日起至2017年1月30日推出“个人流水年终大奖”活动，内容如下：\n\n一、参与对象：本团队所有注知\n\n为了更好的推动市场良性发展，经研究决定，自2016年10月24日起至2017年1月30日推出“个人流水年终大奖”活动，内容如下：\n\n一、参与对象：本团队所有注册玩家；\n\n二、奖励标准：（各奖项不限人数）\n\n第一名保时捷macan跑车一辆：日均25万流水，总流水不低于1750万元；\n\n第二名<b>宝马X1</b>越野车一辆：日均15万流水，总流水不低于1050万元；\n\n第三名大众polo汽车一辆：日均5万流水，总流水不低于350万元；\n\n第四名100000泸州老窖喜宴酒：日均2万流水，总流水不低于140万元；\n\n第五名苹果7手机一部：日均0.5万流水，总流水不低于35万元；\n\n第六名机器人自动炒菜机一部：日均0.3万流名机器人自动炒菜机一部：日均0.3万流水，总流水不低于21万元；\n\n第七名华为荣耀8手机一部：日均0.2万流水，总流水不低万流水，总流水不低于14万元；\n\n第八名1000元泸州老窖喜酒：日均0.08万流水，总流水不低于14万元；\n\n第八名1000元泸州老窖喜酒：日均0.08万流水，总流水不低于5.6万元。\n\n四、发放时间：2017年2月15日\n\n五、备注：1、奖励重叠时每人只能获得一个名额；2、活动周期70天，获奖者至少40天有交易流水；3、部分、部分团队不参加，详询团、部分团队不参加，详询团队负责人。\n\n金德微交易\n\n2016年10、部分团队不参加，详询团队负责人。\n\n金德微交易\n\n2016年10月23日\n\n\n",
         "author" : "晓晓名品汇",
         "mentionCommentCount" : 0,
         "preciseTime" : "2016-10-24 03:00:10",
         "allSentimentCount" : "0",
         "id" : "2016102400003095524",
         "authorType" : 0,
         "authorImageUrl" : "",
         "approximateTime" : "7 小時前",
         "loveCount" : "0",
         "url" : "http://mp.weixin.qq.com/s?__biz=MjM5MzUwMjg1OA==&mid=2452701026&idx=1&sn=0968b6bc6117043ecd8a9d60abde7637&chksm=b1539c87862415916532993f3dab9919d3026916d181f7a796710a8486e4fbc0c129fd5253fc&3rd=MzA3MDU4NTYzMw==&scene=6#rd",
         "likeCount" : 0,
         "score" : "94%",
         "mediaKey" : "wechat",
         "shareCount" : 0,
         "title" : "微交易年终大奖：保时捷轿车等你拿",
         "imageCount" : 0,
         "sadCount" : "0",
         "viewCount" : 1,
         "wisers_kol_id" : 1,
         "comment" : {},
         "sourceId" : "2622",
         "pubDate" : 1477249210000,
         "hahaCount" : "0",
         "orderByDate" : 1477249210000,
         "commentCount" : 0,
         "blogId" : "2016102400003095524",
         "sentiment" : "POSITIVE",
         "wowCount" : "0",
         "authorId" : "2622_xxmp168",
         "sourceName" : "晓晓名品汇",
         "angryCount" : "0",
         "fansCount" : 0,
         "sourceRegion" : "cn",
         "media" : "WECHAT"
      },
      {
         "author" : "邋遢小昊",
         "mentionCommentCount" : 0,
         "content" : "【<b>宝马X1</b>森林之旅 追求最美森林星空的旅程】森林与星空是至美景程】森林与星空是至美景色，能让人不断追求。在十程】森林与星空是至美景色，能让人不断追求。在十一之前，我们也驾驶<b>宝马X1</b>，进行了一次策划已久的长途旅行。http://t.cn/RVWyFvp",
         "contentType" : "",
         "authorType" : 0,
         "id" : "2016102410000026197",
         "allSentimentCount" : "0",
         "preciseTime" : "2016-10-24 01:44:49",
         "loveCount" : "0",
         "likeCount" : 0,
         "url" : "http://weibo.com/1247874892/EeenZE6NM",
         "authorImageUrl" : "http://tva4.sinaimg.cn/crop.0.0.180.180.50/4a610f4cjw1e8qgp5bmzyj2050050aa8.jpg",
         "approximateTime" : "8 小時前",
         "imageCount" : 0,
         "wisers_kol_id" : 1,
         "sadCount" : "0",
         "viewCount" : 0,
         "score" : "0%",
         "title" : "",
         "mediaKey" : "sinaweibo",
         "shareCount" : 0,
         "comment" : {},
         "sentiment" : "NEUTRAL",
         "wowCount" : "0",
         "pubDate" : 1477245145000,
         "sourceId" : "1",
         "commentCount" : 0,
         "blogId" : "4033918959559270",
         "hahaCount" : "0",
         "orderByDate" : 1477244689000,
         "fansCount" : 70,
         "sourceRegion" : "cn",
         "media" : "SINA_WEIBO",
         "authorId" : "1_1247874892",
         "angryCount" : "0",
         "sourceName" : "http://app.weibo.com/t/feed/12sA3H"
      },
      {
         "sourceRegion" : "cn",
         "fansCount" : 222,
         "media" : "SINA_WEIBO",
         "authorId" : "1_1133944183",
         "sourceName" : "http://app.weibo.com/t/feed/12sA3H",
         "angryCount" : "0",
         "sentiment" : "NEUTRAL",
         "wowCount" : "0",
         "pubDate" : 1477245145000,
         "sourceId" : "1",
         "orderByDate" : 1477244688000,
         "hahaCount" : "0",
         "commentCount" : 0,
         "blogId" : "4033918954677576",
         "comment" : {},
         "imageCount" : 0,
         "wisers_kol_id" : 1,
         "sadCount" : "0",
         "viewCount" : 0,
         "score" : "0%",
         "shareCount" : 0,
         "mediaKey" : "sinaweibo",
         "title" : "",
         "loveCount" : "0",
         "url" : "http://weibo.com/1133944183/EeenZjCQM",
         "likeCount" : 0,
         "authorImageUrl" : "http://tva1.sinaimg.cn/crop.0.0.180.180.50/43969d77jw1e8qgp5bmzyj2050050aa8.jpg",
         "approximateTime" : "8 小時前",
         "id" : "2016102410000026195",
         "authorType" : 0,
         "preciseTime" : "2016-10-24 01:44:48",
         "allSentimentCount" : "0",
         "author" : "童琳宝珼",
         "mentionCommentCount" : 0,
         "contentType" : "",
         "content" : "【<b>宝马X1</b>森林之旅 追求最美森宝马X1</b>森林之旅 追求最美森林星空的旅程】http://t.cn/RVWUz6G"
      },
      {
         "allSentimentCount" : "0",
         "preciseTime" : "2016-10-24 01:44:43",
         "authorType" : 0,
         "id" : "2016102410000026200",
         "content" : "【<b>宝马X1</b>森林之旅 追求最美森林星空的旅程】森林与星空是至美程】森林与星空是至美景色，能让人不程】森林与星空是至美景色，能让人不断追求。在十程】森林与星空是至美景色，能让人不断追求。在十一之前，我们也驾驶<b>宝马X1</b>，进行了一次策划已久的长途旅行久的长途旅行。http://t.cn/RVWyFvp",
         "contentType" : "",
         "mentionCommentCount" : 0,
         "author" : "关中阿锟",
         "title" : "",
         "shareCount" : 0,
         "mediaKey" : "sinaweibo",
         "score" : "0%",
         "sadCount" : "0",
         "viewCount" : 0,
         "wisers_kol_id" : 1,
         "imageCount" : 0,
         "approximateTime" : "8 小時前",
         "authorImageUrl" : "http://tva3.sinaimg.cn/crop.0.0.180.180.50/4395ee85jw1e8qgp5bmzyj2050050aa8.jpg",
         "likeCount" : 0,
         "url" : "http://weibo.com/1133899397/EeenXimGf",
         "loveCount" : "0",
         "blogId" : "4033918934377091",
         "commentCount" : 0,
         "orderByDate" : 1477244683000,
         "hahaCount" : "0",
         "pubDate" : 1477245145000,
         "sourceId" : "1",
         "wowCount" : "0",
         "sentiment" : "NEUTRAL",
         "comment" : {},
         "angryCount" : "0",
         "sourceName" : "http://app.weibo.com/t/feed/12sA3H",
         "authorId" : "1_1133899397",
         "media" : "SINA_WEIBO",
         "fansCount" : 127,
         "sourceRegion" : "cn"
      },
      {
         "id" : "2016102410000012178",
         "authorType" : 0,
         "preciseTime" : "2016-10-24 00:39:16",
         "allSentimentCount" : "0",
         "mentionCommentCount" : 0,
         "author" : "手机用户1782061333",
         "contentType" : "",
         "content" : "【宝马入门跨界车假想图曝光】宝马正在筹划一款以奥迪Q1为假想敌的全新入门级豪华SUV，定位低于第二代X1，预计将在2018年上市。，定位低于第二代X1，预计将在2018年上市。该车在宝马集团内部的代，定位低于第二代X1，预计将在2018年上市。该车在宝马集团内部的代号为XCite，预计上市时将以1系Sport Cross为名。全新1系SC的设计将继承宝马家族醒目的双肾型进气格栅，充满雕塑感和动感的车身线条。",
         "viewCount" : 0,
         "sadCount" : "0",
         "wisers_kol_id" : 1,
         "midImgUrl" : "http://ww2.sinaimg.cn/bmiddle/6a381915gw1f92oeretkvj20fu0ak0ta.jpg",
         "thumbImageUrl" : "http://ww2.sinaimg.cn/thumbnail/6a381915gw1f92oeretkvj20fu0ak0ta.jpg",
         "imageCount" : 1,
         "shareCount" : 0,
         "mediaKey" : "sinaweibo",
         "title" : "",
         "score" : "93%",
         "url" : "http://weibo.com/1782061333/EedXoelc2",
         "likeCount" : 0,
         "loveCount" : "0",
         "approximateTime" : "9 小時前",
         "authorImageUrl" : "http://tva3.sinaimg.cn/crop.0.0.199.199.50/6a381915gw1f92ojxpgqdj205k05kglf.jpg",
         "wowCount" : "0",
         "sentiment" : "POSITIVE",
         "hahaCount" : "0",
         "orderByDate" : 1477240756000,
         "commentCount" : 0,
         "blogId" : "4033902463418062",
         "pubDate" : 1477241065000,
         "sourceId" : "1",
         "comment" : {},
         "orgImageUrl" : "http://ww2.sinaimg.cn/large/6a381915gw1f92oeretkvj20fu0ak0ta.jpg",
         "media" : "SINA_WEIBO",
         "sourceRegion" : "cn",
         "fansCount" : 2,
         "sourceName" : "http://app.weibo.com/t/feed/c66T5g",
         "angryCount" : "0",
         "authorId" : "1_1782061333"
      },
      {
         "approximateTime" : "10 小時前",
         "authorImageUrl" : "",
         "url" : "http://mp.weixin.qq.com/s?__biz=MjM5Mzg4MjE1Ng==&mid=2655276440&idx=2&sn=e1b857cbcd0e8542f20a2dc61c83487b&chksm=bd20a4db8a572dcd56445cecba9b0bf2d21cdf6ef4ba18f11b1873c12cd988e946dfa893e5a0&3rd=MzA3MDU4NTYzMw==&scene=6#rd",
         "likeCount" : 0,
         "loveCount" : "0",
         "shareCount" : 0,
         "mediaKey" : "wechat",
         "title" : "模特礼仪兼职通告 | 10.24",
         "score" : "0%",
         "sadCount" : "0",
         "wisers_kol_id" : 1,
         "viewCount" : 5,
         "imageCount" : 0,
         "contentType" : "",
         "content" : "\n\n今日模特兼职职地区包括深圳，广州，职地区包括深圳，广州，深圳、佛山，厦门，澳门，肇职地区包括深圳，广州，深圳、佛山，厦门，澳门，肇庆，东莞，上海。想了解职地区包括深圳，广州，深圳、佛山，厦门，澳门，肇庆，东莞，上海。想了解其他更多地区通告，职地区包括深圳，广州，深圳、佛山，厦门，澳门，肇庆，东莞，上海。想了解其他更多地区通告，请关注本公众查看。\n\n美女帅哥各位好，本公众号的自动回复被屏蔽了，自动回复转移到 ? 另一公众号《精选品味》扫号《精选品味》扫描本文末尾二维码或搜索公众微信号：sun1516186关注，你想要的都在这号：sun1516186关注，你想要的都在这里！有——链接 兼职群 流量号：sun1516186关注，你想要的都在这里！有——链接 兼职群 流量福利 视频 电影 电视直播 便利等。\n\n兼职通告 每天更新\n\n1. 北京单\n\n顺义新国展，25号26号连续这两天展台需要2名礼仪，公共安全展，负责收集资料 登记接待等 工作时间8:30到17:00 需要提前半小时到8:00到达，费用200元，资料 登记接待等 工作时间8:30到17:00 需要提前半小时到8:00到达，费用200元，能连续做的发模卡给我 微信：fitlake\n\n2. 番禺单\n\n番禺11.15号活动，16名女模特【模特要求】净身高168cm以上，身材脸蛋姣好。无需面试，线上定人，照片五张（两张化妆，定人，照片五张（两张化妆，两张生活定人，照片五张（两张化妆，两张生活，一张素颜定人，照片五张（两张化妆，两张生活，一张素颜）。有模卡的定人，照片五张（两张化妆，两张生活，一张素颜）。有模卡的也需要补五张照片的。素颜照若定人，照片五张（两张化妆，两张生活，一张素颜）。有模卡的也需要补五张照片的。素颜照若出现P图或者化妆情况一律直接淘汰。【工作内容】内衣模特走秀！不能接受的别来。【工作地点】番禺富豪山庄【工作时间】11月15号下午5点-8点或9点，价格可以自报戓定人后才定价格，有档期的美女私聊期的美女私聊我s688666888\n\n3. 广州单\n\n天河区28号早要化妆师化8个毕业生，化完即走，加我发作品，自报学生能接受的价格。微信：chen1214417425\n\n4. 深圳单\n\n明天24微信：chen1214417425\n\n4. 深圳单\n\n明天24号需要男礼模，要有健身习惯的，因为有一定的体能测试，能接受今晚入住机场附近酒店的?我住机场附近酒店的?我微信514968950，净身高175就可以，价格自报私聊\n\n5. 上海单\n\n10.24上午9点面试，活动10.25。韩国juno学院老师亲点面试，活动10.25。韩国juno学院老师亲自做头发。超美腻生活的韩式发型，长中短都需要。800，染生活色+烫发。要求：170+会走秀的女模。头发未接发/未染黑/健康发质。漂的很枯发/未染黑/健康发质。漂的很枯燥发/未染黑/健康发质。漂的很枯燥的头发不行。报名加微信13436236376发摩卡和近期发型生活照\n\n6. 和近期发型生活照\n\n6. 广州单\n\n江铃展台礼仪250元/天（卡片 视和近期发型生活照\n\n6. 广州单\n\n江铃展台礼仪250元/天（卡片 视频定人）要求：10个和近期发型生活照\n\n6. 广州单\n\n江铃展台礼仪250元/天（卡片 视频定人）要求：10个礼仪，要求女净身高165以上，长相靓丽；丽；工作时间：11月18-27号，17号培训。工资待遇：正式工作250元/天，资料定人（包餐，最后一天现结）报名方式：发姓名，手机，江铃式：发姓名，手机，江铃礼仪式：发姓名，手机，江铃礼仪，礼仪卡，自拍视频（二者都要）到我微信13560350558（选中会回复你）\n\n7. 广韶单\n\n韶关活动，广州出发，30.31.1.2号4天，需要两个会唱瑶族歌曲的，有的联系我，自报价。微信：lhb99999\n\n8. 佛山单\n\n禅城创意产业园10月28-30号<b>宝单\n\n禅城创意产业园10月28-30号<b>宝马X1</b>南区美食之旅活动需要礼仪3-4名，需要12人参加面试，价250.净身高168以单\n\n禅城创意产业园10月28-30号<b>宝马X1</b>南区美食之旅活动需要礼仪3-4名，需要12人参加面试，价250.净身高168以上，甜美型，拒绝大小姐单\n\n禅城创意产业园10月28-30号<b>宝马X1</b>南区美食之旅活动需要礼仪3-4名，需要12人参加面试，价250.净身高168以上，甜美型，拒绝大小姐黑脸女生，因为活动比较正式，怕苦怕累的勿扰，工作朝八晚六，最好本地的，28号全天彩排，，全天价格！定模卡25周二就在工作地点下午3点面试，有档期的直接发卡到15625538257\n\n9. 广州单\n\n11.18媒体日州单\n\n11.18媒体日需要以下演艺人员1.州单\n\n11.18媒体日需要以下演艺人员1.女歌手开场，天籁之音州单\n\n11.18媒体日需要以下演艺人员1.女歌手开场，天籁之音的那种2.四个男高音合唱?3.机械舞7人左右4.人屏互动 2人5.产品秀情景剧 一家三口 2-4个屏互动 2人5.产品秀情景剧 一家三口 2-4个时尚女性 2-3商务男女 产品秀几个人一起跳舞 需要团队架构介绍以上节目均自报价 11.17需要彩排 彩排报价 能做的发资料到516276354@qq.com\n\n10. 广州单\n\n25号广州南站活动礼仪，上午十点多到两点多，接待，迎宾之类的工作，很轻松，要两个多，接待，迎宾之类的工作，很轻松，要两个，150多，接待，迎宾之类的工作，很轻松，要两个，150一个人。微信：feimao088792\n\n11. 广州单\n\n琶洲展馆礼仪，身高1.68以上，样貌好看，笑容甜美，展位接待，沟通能力好的，有礼仪经验与职业道德。200元/天+德。200元/天+餐饮。(1)18-19号连续2天要1人(2)18-26德。200元/天+餐饮。(1)18-19号连续2天要1人(2)18-26号连续9天要2人微信蓉德。200元/天+餐饮。(1)18-19号连续2天要1人(2)18-26号连续9天要2人微信蓉莉13600031079发礼仪卡，自我介绍视频，身高姓名电话。做几号？\n\n12. 深圳单\n\n拍摄冬装 外景 地点待定德。200元/天+餐饮。(1)18-19号连续2天要1人(2)18-26号连续9天要2人微信蓉莉13600031079发礼仪卡，自我介绍视频，身高姓名电话。做几号？\n\n12. 深圳单\n\n拍摄冬装 外景 地点待定德。200元/天+餐饮。(1)18-19号连续2天要1人(2)18-26号连续9天要2人微信蓉莉13600031079发礼仪卡，自我介绍视频，身高姓名电话。做几号？\n\n12. 深圳单\n\n拍摄冬装 外景 地点待定日期：10月28日 价1K/天身高：168+，五官端正漂亮，有平面拍摄经验，礼仪勿扰！报名微信：CC-Model 发模卡及视频即可，定人通知！\n\n13. 佛山单\n\n11.19号要一位女主持和舞蹈。加我时备舞蹈。加我时备注是报名什么，自舞蹈。加我时备注是报名什么，自报价。视频定人。微信：CHJIAX\n\n14. 广州单\n\n10月29和31号这两天需要4名礼仪，要求净身高170+，漂亮的，有净身高170+，漂亮的，有气质的。29号在天河附近，31号在大学城北。时间下午4点半~晚上10点。工作内容扮演万圣节鬼妆。费用300／圣节鬼妆。费用300／天。有时间的发资料到微信1004843086，模卡加视频！一定要看清楚通告再报名清楚通告再报名，要连续做的，日清楚通告再报名，要连续做的，日期是29和31号两清楚通告再报名，要连续做的，日期是29和31号两天。飞机女勿扰\n\n15. 广州单\n\n26号开业活动需要4位女生，身高要求168.地点烈士陵园地铁附近，时间陵园地铁附近，时间上午9:00—14:00之前（包陵园地铁附近，时间上午9:00—14:00之前（包中餐），价格200.有陵园地铁附近，时间上午9:00—14:00之前（包中餐），价格200.有空请加我微信发资料。陵园地铁附近，时间上午9:00—14:00之前（包中餐），价格200.有空请加我微信发资料。微信：shui397431\n\n16. 上海单\n\n陵园地铁附近，时间上午9:00—14:00之前（包中餐），价格200.有空请加我微信发资料。微信：shui397431\n\n16. 上海单\n\n近期某汽车广告拍摄需要乐队一支，偏五月天风格的，乐陵园地铁附近，时间上午9:00—14:00之前（包中餐），价格200.有空请加我微信发资料。微信：shui397431\n\n16. 上海单\n\n近期某汽车广告拍摄需要乐队一支，偏五月天风格的，乐队照片+作品资陵园地铁附近，时间上午9:00—14:00之前（包中餐），价格200.有空请加我微信发资料。微信：shui397431\n\n16. 上海单\n\n近期某汽车广告拍摄需要乐队一支，偏五月天风格的，乐队照片+作品资料，自报价，367426454@qq.com，或者联系本人微信：367426454王利\n\n17. 广州单\n\n11月10号，番禺星河湾，晚宴要一对荧光狮，狮子破旧的勿扰，自报价，有资源的麻烦发资料加微信18665662241，并发资料视频到邮箱2322436005@qq.com\n\n18. 广州单\n\n广州某装修品牌周年庆【11/12日】,地点：广州喜来登酒店。招聘：签到礼仪8名。要求：165以上，长相漂亮，身材好；费用：礼仪350元每天。只包中餐不报销路费，提供服装和化妆，自备鞋子。有意者请将姓名，身高，电话，照片发送到QQ361005619，公主病勿扰\n\n广州单200元/天\n\n10.23号需要170以上礼仪5人，长相甜美，态度好，11点半到场，工作时单200元/天\n\n10.23号需要170以上礼仪5人，长相甜美，态度好，11点半到场，工作时间下午2点到9点半，地点在广州塔，价200，可以的尽快发资料小视频到微信：18026242105\n\n广小视频到微信：18026242105\n\n广州单200元/天\n\n27.28号需要连拍的，2个白领美女，18-26岁，身高165以上，一个女老板，30-38岁，上，一个女老板，30-38岁，身高165以上，200/天，照上，一个女老板，30-38岁，身高165以上，200/天，照片+视频+基本资料＋我微信13533324088，发我客户定人，不通过不回复。\n\n广州单250元/天\n\n2016广州国际车展11.19-27日需礼仪.要求身高166以上乖巧甜美女生，价250元/天，会提前1天彩排半价，不用面试，按要求排半价，不用面试，按要求拍排半价，不用面试，按要求拍视频定人，有兴趣的加微信piyancen 备注车展礼仪，通注车展礼仪，通过后发资料，欢迎亲们转发，谢谢！\n\n广州单200元/天\n\n10.23号需要170以上礼仪5人，长相甜美，注车展礼仪，通过后发资料，欢迎亲们转发，谢谢！\n\n广州单200元/天\n\n10.23号需要170以上礼仪5人，长相甜美，态度好，11点半到场，工作时间下午2点到9点半，地点在广州塔，价200，可以的尽快发资料注车展礼仪，通过后发资料，欢迎亲们转发，谢谢！\n\n广州单200元/天\n\n10.23号需要170以上礼仪5人，长相甜美，态度好，11点半到场，工作时间下午2点到9点半，地点在广州塔，价200，可以的尽快发资料小视频到微信：18026242105\n\n广州单400元/天\n\n31号订货会要8个礼模要求168左右要8个礼模要求168左右甜美气质风，超要8个礼模要求168左右甜美气质风，超过171的不要 裤子不适合的 谢谢会简单走台，价格400 模特卡定 要会简单走台的 新人勿扰 谢谢 不废话 不回复你好之类的 直的 新人勿扰 谢谢 不废话 不回复你好之类的 直接发资的 新人勿扰 谢谢 不废话 不回复你好之类的 直接发资料即可 微信：javenbaby\n\n广州单250元/天\n\n「寻找COS妹纸」11月21号-26号天河中天购物城的 新人勿扰 谢谢 不废话 不回复你好之类的 直接发资料即可 微信：javenbaby\n\n广州单250元/天\n\n「寻找COS妹纸」11月21号-26号天河中天购物城需COS PLAY，上午11点到1点.，下午5点至8点，250/天，需连续6天。无咩特别要求，报名发相片,写明身高,三围就OK围就OK。微信:13570960604\n\n广州单400元/天\n\n25号需要两名身高170以上的美女礼模做展示。要求漂亮身材好，170以上，有亲和礼模做展示。要求漂亮身材好，170以上，有亲和力。早上九点开始化妆，中间会轮休，中午也会休息，大概晚上七点结束。日结400/天，做完即结。工作地点在天河区科学城。资资料照片和小视频定人，不用面试。加微信694925077\n\n广州单350元/天\n\n11.1-5需要165+礼仪 要面试 价350 没什么要求但是一定要听话 事妈鸽子千万别来 会日语最好 必须连做 看清楚！必须连做！！ 下周二能面试的私我微信：qyyyyy_\n\n广州单1000元\n\n10月底拍摄家居服，女月底拍摄家居服，女模特，长发，甜美型，灵气，丰月底拍摄家居服，女模特，长发，甜美型，灵气，丰富拍摄经验。价1000。微信蓉莉13600031079发模特卡，身高姓名电话。\n\n广州单320元/天\n\n广州车展活动，16培训、17彩排（半价），18～27活动（全价）需要能连做的礼仪小姐，要求身高170+漂亮，乖巧，10月23号芳村面试，价320亮，乖巧，10月23号芳村面试，价320，请有时间工作和面试的踊跃报名Moonmoon1106\n\n广州单800~1000元/天\n\n10月底珠江新城产品专柜拍摄需国内平面女模1名，要求身高168+，都市白领风，气质好，不要妖艳的，拍摄半天，价800—1200要求身高168+，都市白领风，气质好，不要妖艳的，拍摄半天，价800—1200，具体看人定价，符合条件发模卡加视频到微信13073028631，大小姐公主病勿扰，谢谢合作！\n\n广州单800元/天\n\n11月8.9号拍摄，需要气质性感女神5名，试镜定人，价钱800主病勿扰，谢谢合作！\n\n广州单800元/天\n\n11月8.9号拍摄，需要气质性感女神5名，试镜定人，价钱800，10月21~29号早上11点到下午5可主病勿扰，谢谢合作！\n\n广州单800元/天\n\n11月8.9号拍摄，需要气质性感女神5名，试镜定人，价钱800，10月21~29号早上11点到下午5可主病勿扰，谢谢合作！\n\n广州单800元/天\n\n11月8.9号拍摄，需要气质性感女神5名，试镜定人，价钱800，10月21~29号早上11点到下午5可以试镜，加微信：867596018，发一张摩卡留电话，资主病勿扰，谢谢合作！\n\n广州单800元/天\n\n11月8.9号拍摄，需要气质性感女神5名，试镜定人，价钱800，10月21~29号早上11点到下午5可以试镜，加微信：867596018，发一张摩卡留电话，资料通过发地址\n\n广州单自报价\n\n广州出发惠州，活动日期：2016年10月29-30日（周六、日）两天要四个人爵士乐队（中籍），服装民族风格，唱类似：罗大佑、周华健就，要小清新乐队演唱.另外同场活动要舞蹈，八人团队，民族风的舞，时八人团队，民族风的舞，时间同上，有档期的团队联系我，412949474，谢谢\n\n广州单300元/天\n\n琶洲车展11.18-27号需要10名PG礼仪 能连续工作的 身高168+ 活泼，口齿伶俐有良好的沟通能力良好的沟通能力，重点是一定要漂亮！漂亮！漂亮！300/天 可能只需视频面试 通良好的沟通能力，重点是一定要漂亮！漂亮！漂亮！300/天 可能只需视频面试 通过机会大 飞机勿扰 合适的发卡到我微信 624606179\n\n广州单看详情\n\n12.4广州越秀区9-12点服装品牌发情\n\n12.4广州越秀区9-12点服装品牌发布会需要以下演艺人情\n\n12.4广州越秀区9-12点服装品牌发布会需要以下演艺人员：\n\n1-主持人情\n\n12.4广州越秀区9-12点服装品牌发布会需要以下演艺人员：\n\n1-主持人男女各一名，情\n\n12.4广州越秀区9-12点服装品牌发布会需要以下演艺人员：\n\n1-主持人男女各一名，男180+女168+，要净高，因为现场人都很高- -，国语标准，大方得体，自报价，新手主持跟资料里主做婚庆的勿扰，客户比较反感。发近照+全身照+一个视频连接。\n\n2-男模5名，T秀，净高186+，脸跟整体气质都不错的，1k-1.2k看人定体气质都不错的，1k-1.2k看人定。发模卡+视频。\n\n3-女模5体气质都不错的，1k-1.2k看人定。发模卡+视频。\n\n3-女模5名，T秀，净高176+，漂亮身材好，脸体气质都不错的，1k-1.2k看人定。发模卡+视频。\n\n3-女模5名，T秀，净高176+，漂亮身材好，脸不要太v，1k-1.2k看人定。发模卡+视频。\n\n4-网红5名，10W-20W-30W，在线1W以上，刷单的不用来，颜值高会说的，有化妆品服装发布会经验优先，1小时，价格自报。发网红资料。\n\n以上人员加我微信 ： ken13113000975发资料资料，报名1234哪个记得说，需要的资料，报名1234哪个记得说，需要的资料直接发资料，报名1234哪个记得说，需要的资料直接发来别说其他的谢谢，定人会通知。\n\n广州单200元/天\n\n10.28-10.30三天，17:00-21:00，中餐厅活动，，需要五个礼仪170+cm，200一天，有兴趣请发资料到微信18820053615\n\n广州单自报价\n\n11月5,6号，佛山南海，需要5女模，古装走秀，不用换服装，朝九晚八，4趴，实换服装，朝九晚八，4趴，实高175＋，包吃住，广州飞机公主勿扰，价私，卡＋视频，时间有变，之前发过资料时间有空的可再发一次微信：Svna1Li\n\n广州单700元/天\n\n广州车展面试车展面试：\n\n（正式工作：11.20-11.29，培训彩排：11.18-11.19车展面试：\n\n（正式工作：11.20-11.29，培训彩排：11.18-11.19）\n\n需要男模4位185?女模8位175?包餐包化妆包服装鞋子价7、15号12:30签到13:00面试，不海选，带上身份证，当场定人签约。确证，当场定人签约。确定有时间的帅哥美女发我模卡，资料定人面试。微信: 1247615775文康\n\n面试地点：广州春天里酒店顶层（天河区燕岭路95试地点：广州春天里酒店顶层（天河区燕岭路95号新燕大厦）要求：女模自备礼服和高跟鞋，男模穿戴整齐！\n\n广州单230元/人\n\n10月15，16，22，23号活动，活动地点广州天河，室内派单接待礼仪，要求实高165以上，笑容甜皮肤好，工肤好，工作时间：10:00-20:00，客户预算低，肤好，工作时间：10:00-20:00，客户预算低，薄酬：230/人，能做的资料到微信398665939，谢谢！不能连做的请注明！\n\n广州单自报价\n\n10月29.30，需要三名舞蹈，一天三part，加我自报价。另需要模特两名，工作时间为一般展会时间微信：H3397776\n\n广州单300元/天\n\n11月份琶洲广交会车展展台礼仪，23号下午面试！！！\n\n个人要求：女生，裸高身高167+，能连续工作12天\n\n工作时间：11月16~27日\n\n工作待遇：300元/天 包餐水\n\n工作时间 ：8:30-18:00\n\n时间 ：8:30-18:00\n\n微信：694489763报名发照片我。备注车展礼仪\n\n广州单400元/天\n\n广州礼模单，时间：11月11号，工作时间：14:30-21:30，地点：广州广百百货\n\n人数：1人，报价400/人，包晚餐水，要求：女生身高172以上，自备黑色礼仪鞋站40分钟休息15分钟，（照骗，虚报身高一律不给钱）公主病，飞机，请勿报名！请看清楚通告再报名！谢谢合作！报名方式：添加微信13808844427，发模卡电话，备注11.11礼模\n\n广州单自报价\n\n这个月31号 要3男3女 走秀童模 125~135厘米的 在广州，有意向的宝妈请投资料到我。（几套服装还不确定）价格自报合作价，联系微信13160847751\n\n广州单自报价\n\n广州 内衣通告：有30多套文胸在找甜美韩范中模，群内可以拍内衣的MM或有内衣中模的经纪，麻烦加我微信发资料及报价。要求长相甜美，可以驾驭日韩风格。 邮箱号码：3097563893@qq.com 谢谢！\n\n广州单自报价\n\n广州国际车展：中英合资品牌（我司上年的品牌）\n\n模特：\n\n女中模要4人，身高要实高175以上。\n\n外模要共4人，男外模2人，185以上，女外模2人，175以上。（模\n\n广州单自报价\n\n这个月31号 要3男3女 走秀童模 125~135厘米的 在广州，有意向的宝妈请投资料到我。（几套服装还不确定）价格自报合作价，联系微信13160847751\n\n广州单自报价\n\n广州 内衣通告：有30多套文胸在找甜美韩范中模，群内可以拍内衣的MM或有内衣中模的经纪，麻烦加我微信发资料及报价。要求长相甜美，可以驾驭日韩风格。 邮箱号码：3097563893@qq.com 谢谢！\n\n广州单自报价\n\n广州国际车展：中英合资品牌（我司上年的品牌）\n\n模特：\n\n女中模要4人，身高要实高175以上。\n\n外模要共4人，男外模2人，185以上，女外模2人，175以上。（欢迎经纪合作）。\n\nPG（品牌指导员）：要12人员）：要12人，身高要实高170-175。要气质员）：要12人，身高要实高170-175。要气质型。\n\n礼仪：要12人员）：要12人，身高要实高170-175。要气质型。\n\n礼仪：要12人，身高165-170。要有经验的。\n\n面试时间暂定10月28号员）：要12人，身高要实高170-175。要气质型。\n\n礼仪：要12人，身高165-170。要有经验的。\n\n面试时间暂定10月28号，地点：广州，我公司七喜创意园。请员）：要12人，身高要实高170-175。要气质型。\n\n礼仪：要12人，身高165-170。要有经验的。\n\n面试时间暂定10月28号，地点：广州，我公司七喜创意园。请有兴趣的美女们私信我报名。（报名请备注，我会拉群。）\n\n联系人：阿胜\n\n联系电话微信：13826455794。\n\n广州单看详情\n\n广州车展单，某品牌需要25名女礼仪（需面试），身高170cm左右， 要求：身材（需面试），身高170cm左右， 要求：身材好，无纹身染发，配合工作安排。\n\n工作内容：负责派发礼品，展示。\n\n工作时间：每天早9-晚17:30\n\n11月16号培训半天半价。\n\n11月18-27日为活动日，350-400元/天看人定价，包餐水。（17日彩排半价）\n\n有档期美女请发资料:礼仪卡发送到微信 ：13760757639 面试时间10月21日-22日！\n\n深圳单500元/天\n\n医疗展需要女模，净高173?，日期，29.30.31.价5，有档期的发卡微信：YZQ562259422\n\n深圳单200元/天\n\n11月1号大梅天\n\n11月1号大梅沙京基喜来登酒店，峰会活动还需要2个礼仪，165以上，早上8:30-中午12:00价200,能做的发卡片和视频，一定要有视频，飞机女，不服从安排的，伺候不起，勿投，早上8:00要到达酒店，早上7:00 在黄贝岭地铁站附近集合包车过去，能做的直接卡片和视频，谢谢！微信：Ma672511314\n\n深圳单250元/天\n\n11.7会展中心需要2名礼模 净身高170+ 工作时间早上9-下午5 包餐 穿足球宝贝衣服巡馆！有轮休！腿不能粗！价格250！！ 能做的赶紧发卡加小视频！ PP516276354\n\n深圳单200元/天\n\n10月28到11月1号需要一彩妆礼仪，深圳东门茂业彩！ PP516276354\n\n深圳单200元/天\n\n10月28到11月1号需要一彩妆礼仪，深圳东门茂业彩妆专柜，需要一位礼仪做妆面，主要个字不要太娇小，注意是！ PP516276354\n\n深圳单200元/天\n\n10月28到11月1号需要一彩妆礼仪，深圳东门茂业彩妆专柜，需要一位礼仪做妆面，主要个字不要太娇小，注意是彩妆！彩妆！不要有痘痘的，皮肤稍微好点的，店里没人的时候坐着展示，人多时站着展示，价2，+30元饭补，12-8点，自备10cm左右礼模鞋，裙子比较长。主要坐着为主，必须连续做，有空微信我：295292386\n\n深圳单看详情\n\n深圳罗湖区万圣节(公司庆典)：10月31日下午需要兼职模特6名，礼仪6名。下午2点半开始，晚上7点之前会结束。模特要求身高170+，价600，女礼仪要求身高165+，价300。\n\n长相好，身材好，高大上，年龄18-28岁有一定经验的模特礼仪经验者请发模卡给我（V信abc06008）大小姐，飞机党问题宝宝勿扰。10月25号以卡定人。宝宝勿扰。10月25号以卡定人。谢谢\n\n深圳单自报价\n\n10月宝宝勿扰。10月25号以卡定人。谢谢\n\n深圳单自报价\n\n10月底，在深圳，拍裤子的平面，必须要有裤子拍摄经验的女模，身高170以上，要M码，臀要有曲线的，费用自己报，是拍内景，大概有80条左右的裤子要拍，符合条件的模特请发裤子作品和联系方式到：1345947574@qq.com 这个邮箱，选上我们会跟你联系。\n\n深圳单自报价\n\n10月27号 马可波罗酒店 2个礼仪帮忙签到早上10点~晚上8点 饭自己解决， 28号 8个礼仪在深交会活动 上午7点~下午5点 / 晚上晚宴马可上8点 饭自己解决， 28号 8个礼仪在深交会活动 上午7点~下午5点 / 晚上晚宴马可波罗酒店4个礼仪 6点~10点 ， 29号上午10个礼仪马可波罗酒店 上午 7点~14点，28号晚宴要另外4个人，其他的可以连续报3天，价格私聊，模特卡定人之后面试见真人，不海选，有时间报名微信：13631298122\n\n深圳单1000~2000元/天\n\n深圳#主持人招募#10月22日13:30-17:30，深圳市宝安区登喜路国际酒店主持。发姓名、城市、身高、罩杯、电话、模特卡、主持视频、报价、推荐人 陈莹莹 ，微信“cqgjj2015” 价格自报 注明，一定要专业的主持，普通的勿扰，价格不低 ，价格大概1000-2000左右，看人定价\n\n深圳单看详情\n\n28号深圳丽思卡尔顿酒店一个商务会议时间是8点到13点，大概是一个早上的会议时间，中间可以休息。需要2名中英商务礼仪，能用英以休息。需要2名中英商务礼仪，能用英语流利交流，价320包礼服。需要2名普通迎宾礼仪以休息。需要2名中英商务礼仪，能用英语流利交流，价320包礼服。需要2名普通迎宾礼仪价220包礼服。发礼仪卡和小视频定人。联系：乘锋15766063736。\n\n深圳单1000元/天\n\n10月30号需要深圳本地女主持一名，时间9-12:30分，要有气质，国语粤语流利。价：1000.能做的尽快给我资料，微信：18026242105\n\n佛山单自报价\n\n10月29号，中山、增城、惠州、从化、佛山本地礼仪，168以上，工作时间19：00-24：00（18：00到场），价私，工作内容：穿虎女郎服装，化彩绘妆容，和指定顾客合照互动。有档期加微信781424101\n\n佛山单600元/天\n\n10月28号需要一名男歌手，会唱国粤语歌曲，一共15首歌左右，时间在下午5点到9点半，价600，能做的速度资料视频给我，到佛山祖庙打车过去可报销车费，微信：18026242105\n\n厦门单400元/场\n\n时装周11月12.13.19.20需要走秀男模女模多名，需要面试。25号厦门岛内面试，活动已确定！能面试的报名，七男七女。能去的私我摩卡。四百一场，微信：justinbieber1004\n\n澳门单自报价\n\n急急急！10月24日，澳门餐厅微电影拍摄需求一名男生，要求身高175cm以上，帅气阳光。有签证有兴趣的加微信：17765202011\n\n重庆单800元/天\n\n11月345号要两名彩绘模特，包吃住，价8，不怕辛苦发我意料。微信13715391835\n\n东莞单2700元\n\n10月22号下午1点至3点，胜利广场，“婷美”内衣试穿拍摄要4个模特，资料：模卡，2张全身照，4张内衣活动照片，联系方式。费用2700。有意的加微信b523900185联系\n\n东莞单600元/天\n\n10月28日,东莞 大朗,需要3模特,资料定人，要求:170+,脸小,能穿的暴露的衣服\n\n工作时间:正常开闭馆时间 早上9.30---到闭馆时间 工作30分钟 休息20分钟\n\n价格600/天.，能做的 微信加: gzqxsusu 加了直接莞 大朗,需要3模特,资料定人，要求:170+,脸小,能穿的暴露的衣服\n\n工作时间:正常开闭馆时间 早上9.30---到闭馆时间 工作30分钟 休息20分钟\n\n价格600/天.，能做的 微信加: gzqxsusu 加了直接发资料 ,最好留下小名\n\n东莞单800~1000元\n\n需要试衣模特一位，拍试穿的正面和反面两镜。身高170-175.三围在85-65-90上下，气质好。价钱800-1000（具体看人定价）泳装。有意向请发模特卡。15013059047（微信电话同步）\n\n上海单看详情\n\n活动一：\n\n10月30日上海体育馆活动需要展示女模一名，要求纯净身高176+，相貌甜美，主要工作静态展示、与嘉宾互动拍照，费用800，确定有档期可以做的发高清模卡+自我介绍视频到微信273590645（鸽子事儿妈勿扰）（请备注模特）\n\n活动二：\n\n10月27日-29日上海跨国采购会展中心需要礼仪2名，要求净身高170+，相貌甜美，工作时间早8-晚8，费用400/天，确定可以连续做的发高清模卡+自我介绍视频到微信273590645（鸽子事儿妈勿扰）（请备注礼仪）\n\n上海单220元/天\n\n30／31上海淮海路K11 化妆品万圣节活动，需要4个女生pG派发，要求皮肤干净，瘦高个型的，工作时间：每天8小时，10点开始，工资连饭贴220/天，下周二下午4时小面试下（面试过了补车费20），能做的发摩卡和小视频微信报名。微信号：gao493190537 电话：13675118852\n\n上海单800元/天\n\n12.12日需要男模一名，要求净身高185+，形象硬朗，肌肉型型男，懂基本摄影，费用800，有档期的发模卡到微信1589413764\n\n上海单200元/天\n\n资料定！11月1-5号展会需要10名礼仪，身高168+，好看听话，薪资200/天，总共5天，必须连坐，会比较辛苦，大小姐鸽子勿扰！??需要个人照片3张+自我介绍视频。必须按要求发资料 否则不回复。微信：pakunafan\n\n广州车展单：需要20名礼仪，其中工作时间11月17日至27日要求净身高165以上，皮肤白，肤质要好。甜美亲和力强，有车展经验的优先，价格220一天（质量好的话250一天），其要好。甜美亲和力强，有车展经验的优先，价格220一天（质量好的话250一天），其中还需要两名会讲韩语的礼仪，要好。甜美亲和力强，有车展经验的优先，价格220一天（质量好的话250一天），其中还需要两名会讲韩语的礼仪，价格300至400之间，要求一样的，如果要要好。甜美亲和力强，有车展经验的优先，价格220一天（质量好的话250一天），其中还需要两名会讲韩语的礼仪，价格300至400之间，要求一样的，如果要求高的也可以自报价，彩排半价，工作前两天可要好。甜美亲和力强，有车展经验的优先，价格220一天（质量好的话250一天），其中还需要两名会讲韩语的礼仪，价格300至400之间，要求一样的，如果要求高的也可以自报价，彩排半价，工作前两天可能会早点辛苦点，后面工作轻松愉快，大小姐多事的勿扰！有意向的美女们加本人微信953921611\n\n找深圳私拍女模，拍摄情趣内衣，时薪600小时，先发近照作选择，身材平均。微信 Hokwokwah1129\n\n广州国际车展：中英合资品牌（我司上年的品牌）11月17-27号。17号彩排。模特：客户会实量身高，女中模要4人，身高要实高175以上。面试后再议。\n\n外模要共4人，男外模2人，185以上，女外模2人，175以上。（欢迎经纪合作）。\n\nPG（品牌指导员）：要12人，身高要实高170-175。要气质型。价钱500/人。\n\n礼仪：要12人，身高165-170。要有经验的。价钱300/人。\n\n面试时间暂定10月28号，地点：广州，我公：要12人，身高165-170。要有经验的。价钱300/人。\n\n面试时间暂定10月28号，地点：广州，我公司七喜创意园。请有兴趣的美女们私信我报名。联系人：阿胜，联系电话微信：13826455794。\n\n深圳单：11月5－7号，深圳会展中心，需要礼仪模特五人，要求净身高168?，价200，包餐水。 微信：minnie544838568\n\n深圳单\n\n拍摄冬装 外景 地点待定，日期：10月28日 价1K/天，身高：168+，五官端正漂亮，有平面拍摄经验，礼仪勿扰！报名微信：CC-Model 发模卡及视频即可，定人通知！\n\n深圳单，11.28的学校化妆造型发布会,需要176+ 必须176+模特,五官上相，价格800，10.24星期一下午两点面试,面试过了得在11.24-26号随便一天去试妆,可以接受的加微信stfyy184 ，不接受虚报身高！加过的说一声,谢谢合作！\n\n深圳：男模单（需面试），运动装拍摄需要男模两位，暂定十月底，要求身高180以上，身体协调性好，拍摄两天，费用1500/天，一天拍摄八小时， 明天下午一点在八卦岭面试，能面试发资料到huadaye1212，确认能面试再报，谢谢。\n\n11月初 深圳需要30个靓女模特，做一个选秀活动或者一个颁奖活动，暖暖气氛。气质好看的发摩卡，身高170cm，加微信 13925036044\n\n东莞单！10月31号需要5男5女扮鬼[坏笑]、男180以上，女168以上、时间4点-8点！价4！地点东莞南城，私我发卡13413186718文康\n\n广州番禺30号活动，工作地址在广州市番禺区市南路159号，一汽丰田体验基地，定位搜索沙湾车检所。29号需要彩排，30号早上需要11点到，13：30-16：30开始工作，29号需要15：00-17:00简单的彩排，30号包中午午餐，工作简单就是签到台接待和讲台接待指导，客户提供化妆师、服装、鞋子，但要自备黑丝袜，价格工作+彩排300元一人有兴趣的加我微信发模特卡+视频+半身动或者一个颁奖活动，暖暖气氛。气质好看的发摩卡，身高170cm，加微信 13925036044\n\n东莞单！10月31号需要5男5女扮鬼[坏笑]、男180以上，女168以上、时间4点-8点！价4！地点东莞南城，私我发卡13413186718文康\n\n广州番禺30号活动，工作地址在广州市番禺区市南路159号，一汽丰田体验基地，定位搜索沙湾车检所。29号需要彩排，30号早上需要11点到，13：30-16：30开始工作，29号需要15：00-17:00简单的彩排，30号包中午午餐，工作简单就是签到台接待和讲台接待指导，客户提供化妆师、服装、鞋子，但要自备黑丝袜，价格工作+彩排300元一人有兴趣的加我微信发模特卡+视频+半身照片谢谢，要求168+。\n\n微信： a13660083175.\n\n广州单：百威啤酒活动推广，活动时间11.1-12.31（每月26天动或者一个颁奖活动，暖暖气氛。气质好看的发摩卡，身高170cm，加微信 13925036044\n\n东莞单！10月31号需要5男5女扮鬼[坏笑]、男180以上，女168以上、时间4点-8点！价4！地点东莞南城，私我发卡13413186718文康\n\n广州番禺30号活动，工作地址在广州市番禺区市南路159号，一汽丰田体验基地，定位搜索沙湾车检所。29号需要彩排，30号早上需要11点到，13：30-16：30开始工作，29号需要15：00-17:00简单的彩排，30号包中午午餐，工作简单就是签到台接待和讲台接待指导，客户提供化妆师、服装、鞋子，但要自备黑丝袜，价格工作+彩排300元一人有兴趣的加我微信发模特卡+视频+半身照片谢谢，要求168+。\n\n微信： a13660083175.\n\n广州单：百威啤酒活动推广，活动时间11.1-12.31（每月26天，可选做），连做有车补有奖金，活动时间晚9-1，活动内容互动动或者一个颁奖活动，暖暖气氛。气质好看的发摩卡，身高170cm，加微信 13925036044\n\n东莞单！10月31号需要5男5女扮鬼[坏笑]、男180以上，女168以上、时间4点-8点！价4！地点东莞南城，私我发卡13413186718文康\n\n广州番禺30号活动，工作地址在广州市番禺区市南路159号，一汽丰田体验基地，定位搜索沙湾车检所。29号需要彩排，30号早上需要11点到，13：30-16：30开始工作，29号需要15：00-17:00简单的彩排，30号包中午午餐，工作简单就是签到台接待和讲台接待指导，客户提供化妆师、服装、鞋子，但要自备黑丝袜，价格工作+彩排300元一人有兴趣的加我微信发模特卡+视频+半身照片谢谢，要求168+。\n\n微信： a13660083175.\n\n广州单：百威啤酒活动推广，活动时间11.1-12.31（每月26天，可选做），连做有车补有奖金，活动时间晚9-1，活动内容互动派发礼品，活动轻松愉快，活动地址广州市内酒吧街动或者一个颁奖活动，暖暖气氛。气质好看的发摩卡，身高170cm，加微信 13925036044\n\n东莞单！10月31号需要5男5女扮鬼[坏笑]、男180以上，女168以上、时间4点-8点！价4！地点东莞南城，私我发卡13413186718文康\n\n广州番禺30号活动，工作地址在广州市番禺区市南路159号，一汽丰田体验基地，定位搜索沙湾车检所。29号需要彩排，30号早上需要11点到，13：30-16：30开始工作，29号需要15：00-17:00简单的彩排，30号包中午午餐，工作简单就是签到台接待和讲台接待指导，客户提供化妆师、服装、鞋子，但要自备黑丝袜，价格工作+彩排300元一人有兴趣的加我微信发模特卡+视频+半身照片谢谢，要求168+。\n\n微信： a13660083175.\n\n广州单：百威啤酒活动推广，活动时间11.1-12.31（每月26天，可选做），连做有车补有奖金，活动时间晚9-1，活动内容互动派发礼品，活动轻松愉快，活动地址广州市内酒吧街（覆盖面很广可就近安排动或者一个颁奖活动，暖暖气氛。气质好看的发摩卡，身高170cm，加微信 13925036044\n\n东莞单！10月31号需要5男5女扮鬼[坏笑]、男180以上，女168以上、时间4点-8点！价4！地点东莞南城，私我发卡13413186718文康\n\n广州番禺30号活动，工作地址在广州市番禺区市南路159号，一汽丰田体验基地，定位搜索沙湾车检所。29号需要彩排，30号早上需要11点到，13：30-16：30开始工作，29号需要15：00-17:00简单的彩排，30号包中午午餐，工作简单就是签到台接待和讲台接待指导，客户提供化妆师、服装、鞋子，但要自备黑丝袜，价格工作+彩排300元一人有兴趣的加我微信发模特卡+视频+半身照片谢谢，要求168+。\n\n微信： a13660083175.\n\n广州单：百威啤酒活动推广，活动时间11.1-12.31（每月26天，可选做），连做有车补有奖金，活动时间晚9-1，活动内容互动派发礼品，活动轻松愉快，活动地址广州市内酒吧街（覆盖面很广可就近安排），共需礼仪30名，要求身高165，形象气质佳，活泼开朗。价2/天，需动或者一个颁奖活动，暖暖气氛。气质好看的发摩卡，身高170cm，加微信 13925036044\n\n东莞单！10月31号需要5男5女扮鬼[坏笑]、男180以上，女168以上、时间4点-8点！价4！地点东莞南城，私我发卡13413186718文康\n\n广州番禺30号活动，工作地址在广州市番禺区市南路159号，一汽丰田体验基地，定位搜索沙湾车检所。29号需要彩排，30号早上需要11点到，13：30-16：30开始工作，29号需要15：00-17:00简单的彩排，30号包中午午餐，工作简单就是签到台接待和讲台接待指导，客户提供化妆师、服装、鞋子，但要自备黑丝袜，价格工作+彩排300元一人有兴趣的加我微信发模特卡+视频+半身照片谢谢，要求168+。\n\n微信： a13660083175.\n\n广州单：百威啤酒活动推广，活动时间11.1-12.31（每月26天，可选做），连做有车补有奖金，活动时间晚9-1，活动内容互动派发礼品，活动轻松愉快，活动地址广州市内酒吧街（覆盖面很广可就近安排），共需礼仪30名，要求身高165，形象气质佳，活泼开朗。价2/天，需面试（50选30），面试时间下周一下午，有档期的?我发卡微信：weixin-952\n\n广州单！11.18-27广州车展需要以下人员！！\n\n1.礼仪 身高168+ 皮肤白皙 笑容甜美 听话懂事 费用280/天\n\n2.女模 身高176+ 皮肤白皙 笑容甜美，费用1000/天\n\n以上人员均于28号面试，当天定人，当天结款！车展还没接的亲们加微信cinnamon01发模卡！！！活动结束当天结款！！添加时备注礼仪or模特！\n\n广州单，广州东站11.7下午3点要小提琴演奏1??位，开场演奏 中场时备注礼仪or模特！\n\n广州单，广州东站11.7下午3点要小提琴演奏1??位，开场演奏 中场演奏，1个半小时内结束，大概3首曲目时备注礼仪or模特！\n\n广州单，广州东站11.7下午3点要小提琴演奏1??位，开场演奏 中场演奏，1个半小时内结束，大概3首曲目，资料请发423577406@qq.com\n\n广州车展礼仪，价格：250/人，要求：\n\n身高165+以上，无明显纹身，长相甜美，无大小姐脾气。\n\n面试时间：10月25日下午四点半\n\n面试地址：广州市芳村1850创意园40-43栋\n\n工作时间：11.17号彩排，彩排半价，11.18-11.27为开展日，要求连续做，中途不换人。加微信15989051236，发模卡，全身照一张礼仪，价格：250/人，要求：\n\n身高165+以上，无明显纹身，长相甜美，无大小姐脾气。\n\n面试时间：10月25日下午四点半\n\n面试地址：广州市芳村1850创意园40-43栋\n\n工作时间：11.17号彩排，彩排半价，11.18-11.27为开展日，要求连续做，中途不换人。加微信15989051236，发模卡，全身照一张报名。面试定人。\n\n广州单：下个月头化妆品直播需要网红一名，粉丝10W+，什礼仪，价格：250/人，要求：\n\n身高165+以上，无明显纹身，长相甜美，无大小姐脾气。\n\n面试时间：10月25日下午四点半\n\n面试地址：广州市芳村1850创意园40-43栋\n\n工作时间：11.17号彩排，彩排半价，11.18-11.27为开展日，要求连续做，中途不换人。加微信15989051236，发模卡，全身照一张报名。面试定人。\n\n广州单：下个月头化妆品直播需要网红一名，粉丝10W+，什么平台都可以，直播两小时，价2000，有意者扔直播卡到VX：526431375，不逐一回复，客户定人后统一通知，谢谢！\n\n广州展会活动，11月21、22日，需要礼模服装走秀，女模16人，男模4人，女模要求实高170以上，男模实高180以上，价400一天，学生新人都接受报名，邮箱502739388@qq.com.\n\n10.24，厦门岛内需要10个礼仪，朝九晚五，身高165?，价200。一定要美的，有空的发模卡?半身照一张。微信：kangruolan3344\n\n上海单：27号活动需10名女生礼仪，身高165?，漂亮，费用250/人，26号下午需彩排，很快结束，50/人！照片定！我来定人，报名发我摩卡！联系微chenyong7401\n\n【上海单】11月4日沐浴露品牌直播活动，8：00～13，很快结束，50/人！照片定！我来定人，报名发我摩卡！联系微chenyong7401\n\n【上海单】11月4日沐浴露品牌直播活动，8：00～13：00，早上彩排，直播一小时，有明星。需要KOL网络红人，价格自报。要求：男女都需要，直播平台粉丝上万，越多越好。加我微信：18801773373。\n\n【深圳惠生活大本营】温馨提示：本平台只提供信息服务，部分兼职源于网络，还需自己辨别真伪！以一切方式要求交钱的兼职，需谨慎以防被骗！！！\n\n◆◆◆\n\n“阅读原文”进入页面查看分类！\n\n\n",
         "mentionCommentCount" : 0,
         "author" : "深圳惠生活大本营",
         "preciseTime" : "2016-10-24 00:24:34",
         "allSentimentCount" : "0",
         "id" : "2016102400003029923",
         "authorType" : 0,
         "sourceName" : "深圳惠生活大本营",
         "angryCount" : "0",
         "authorId" : "2622_sg465480226",
         "media" : "WECHAT",
         "sourceRegion" : "cn",
         "fansCount" : 0,
         "comment" : {},
         "hahaCount" : "0",
         "orderByDate" : 1477239874000,
         "blogId" : "2016102400003029923",
         "commentCount" : 0,
         "sourceId" : "2622",
         "pubDate" : 1477239874000,
         "wowCount" : "0",
         "sentiment" : "NEUTRAL"
      }
   ],
   "totalCount" : "15"
}
